

[
{
    "Unit_Name":"810th Separate Naval Infantry Brigade",
    "Unit_Alternate_Name":"",
    "Unit_Badge":"https://upload.wikimedia.org/wikipedia/commons/a/ab/810th_marine_brigade_patch.png",
    "Unit_Code":"13140",
    "Unit_Size":"Brigade",
    "Unit_Base":"Sebastopol",
    "Unit_Type":"Naval Infantry",
    "Subordinate_to":"58th Combined Arms Army",
    "Org_subordinate_to":"Black Sea Fleet"
},
{
    "Unit_Name":"382nd Separate Naval infantry battalion",
    "Unit_Alternate_Name":"",
    "Unit_Code":"45765",
    "Unit_Size":"Battalion",
    "Unit_Type":"Naval Infantry",
    "Subordinate_to":"810th Separate Naval Infantry Brigade",
    "Org_subordinate_to":"810th Separate Naval Infantry Brigade"
},
{
    "Unit_Name":"542nd Airborne Assault Battalion",
    "Unit_Alternate_Name":"",
    "Unit_Code":"",
    "Unit_Size":"Battalion",
    "Unit_Type":"Naval Infantry",
    "Subordinate_to":"810th Separate Naval Infantry Brigade",
    "Org_subordinate_to":"810th Separate Naval Infantry Brigade"
},
{
    "Unit_Name":"388th Maritime Recon Point",
    "Unit_Alternate_Name":"",
    "Unit_Code":"43071",
    "Unit_Size":"Battalion",
    "Unit_Type":"Naval Infantry",
    "Subordinate_to":"Black Sea Fleet",
    "Org_subordinate_to":"Black Sea Fleet"
},{
    "Unit_Name":"439th Rocket Artillery Brigade",
    "Unit_Alternate_Name":"",
    "Unit_Code":"48315",
    "Unit_Size":"Brigade",
    "Unit_Type":"",
    "Subordinate_to":"58th Combined Arms Army",
    "Org_subordinate_to":""
},{
    "Unit_Name":"6th Engineering Regiment",
    "Unit_Alternate_Name":"",
    "Unit_Code":"52558",
    "Unit_Size":"Regiment",
    "Unit_Type":"",
    "Subordinate_to":"1st Guards Tank Army",
    "Org_subordinate_to":"1st Guards Tank Army"
},{
    "Unit_Name":"39th Separate Motorized Rifle Brigade",
    "Unit_Alternate_Name":"",
    "Unit_Code":"35390",
    "Unit_Size":"Brigade",
    "Unit_Type":"",
    "Subordinate_to":"",
    "Org_subordinate_to":""
},{
    "Unit_Name":"252nd Motor Rifle Regiment",
    "Unit_Alternate_Name":"",
    "Unit_Code":"91711",
    "Unit_Size":"Regiment",
    "Unit_Type":"",
    "Subordinate_to":"3rd Motor Rifle Division",
    "Org_subordinate_to":"3rd Motor Rifle Division"
},{
    "Unit_Name":"752nd Motorized Rifle Regiment",
    "Unit_Alternate_Name":"",
    "Unit_Code":"34670",
    "Unit_Size":"Regiment",
    "Unit_Type":"",
    "Subordinate_to":"3rd Motor Rifle Division",
    "Org_subordinate_to":"3rd Motor Rifle Division"
},{
    "Unit_Name":"10th Special Purpose (Spetsnaz) Brigade",
    "Unit_Alternate_Name":"10th Special Purpose (Spetsnaz) Brigade",
    "Unit_Code":"51532",
    "Unit_Size":"Brigade",
    "Unit_Type":"GRU",
    "Subordinate_to":"",
    "Org_subordinate_to":""
},{
    "Unit_Name":"234th Air Assault Regiment",
    "Unit_Alternate_Name":"",
    "Unit_Code":"74268",
    "Unit_Size":"Regiment",
    "Unit_Type":"VDV",
    "Subordinate_to":"76th Guards Air Assault Division",
    "Org_subordinate_to":"76th Guards Air Assault Division"
},{
    "Unit_Name":"103rd Motorized Rifle Regiment",
    "Unit_Alternate_Name":"",
    "Unit_Code":"91708",
    "Unit_Location":"Rostov-on-Don",
    "Unit_Size":"Regiment",
    "Unit_Type":"Army",
    "Subordinate_to":"",
    "Org_subordinate_to":""
},{
    "Unit_Name":"100th Separate Reconnaissance Brigade",
    "Unit_Alternate_Name":"100th Separate Reconnaissance Brigade",
    "Unit_Code":"23511",
    "Unit_Location":"",
    "Unit_Size":"Brigade",
    "Unit_Type":"Army",
    "Subordinate_to":"",
    "Org_subordinate_to":""
},{
    "Unit_Name":"255th Motorized Rifle Regiment",
    "Unit_Alternate_Name":"255th Motorized Rifle Regiment",
    "Unit_Code":"13766",
    "Unit_Location":"Volgograd",
    "Unit_Size":"Regiment",
    "Unit_Type":"Army",
    "Subordinate_to":"20th Guards Motor Rifle Division",
    "Org_subordinate_to":"20th Guards Motor Rifle Division"
},{
    "Unit_Name":"76th Guards Air Assault Division",
    "Unit_Alternate_Name":"76th Guards Air Assault Division",
    "Unit_Code":"07264",
    "Unit_Location":"Pskov",
    "Unit_Size":"Division",
    "Unit_Type":"VDV",
    "Subordinate_to":"",
    "Org_subordinate_to":""
},{
    "Unit_Name":"66th independent Motorised Rifle Brigade",
    "Unit_Alternate_Name":"66th independent Motorised Rifle Brigade",
    "Unit_Code":"93992",
    "Unit_Location":"",
    "Unit_Size":"Brigade",
    "Unit_Type":"",
    "Subordinate_to":"",
    "Org_subordinate_to":""
},{
    "Unit_Name":"22nd Spetsnaz Brigade",
    "Unit_Alternate_Name":"22nd Spetsnaz Brigade",
    "Unit_Code":"11659",
    "Unit_Location":"",
    "Unit_Size":"Brigade",
    "Unit_Type":"GRU",
    "Subordinate_to":"",
    "Org_subordinate_to":""
},{
    "Unit_Name":"728th Communications Battalion",
    "Unit_Alternate_Name":"728th Communications Battalion",
    "Unit_Code":"24538",
    "Unit_Location":"",
    "Unit_Size":"Battalion",
    "Unit_Type":"VDV",
    "Subordinate_to":"76th Guards Air Assault Division",
    "Org_subordinate_to":"76th Guards Air Assault Division"
},{
    "Unit_Name":"332nd Independent Helicopter Regiment",
    "Unit_Alternate_Name":"",
    "Unit_Code":"",
    "Unit_Location":"",
    "Unit_Size":"Regiment",
    "Unit_Type":"Air Force",
    "Subordinate_to":"6th Air Army",
    "Org_subordinate_to":"6th Air Army"
},{
    "Unit_Name":"15th Separate Guards Motor Rifle Brigade",
    "Unit_Alternate_Name":"15th Separate Guards Motorized Rifle Alexandria (Peacekeeping) Brigade",
    "Unit_Code":"90600",
    "Unit_Location":"",
    "Unit_Size":"Brigade",
    "Unit_Type":"Army",
    "Subordinate_to":"",
    "Org_subordinate_to":"2nd Guards Combined Arms Army"
},{
    "Unit_Name":"37th Separate Guards Motor Rifle Brigade",
    "Unit_Alternate_Name":"",
    "Unit_Code":"69647",
    "Unit_Location":"Kyakhta, Buryatia, Russia",
    "Unit_Size":"Brigade",
    "Unit_Type":"Army",
    "Subordinate_to":"",
    "Org_subordinate_to":"36th Combined Arms Army"
},{
    "Unit_Name":"51st Airborne Regiment",
    "Unit_Alternate_Name":"51st Guards Parachute Regiment",
    "Unit_Code":"",
    "Unit_Location":"Tula",
    "Unit_Size":"Regiment",
    "Unit_Type":"VDV",
    "Subordinate_to":"",
    "Org_subordinate_to":"106th Airborne Division"
},{
    "Unit_Name":"30th Artillery Brigade",
    "Unit_Alternate_Name":"30th Artillery Brigade",
    "Unit_Code":"62048",
    "Unit_Location":"Ulan-Ude",
    "Unit_Size":"Brigade",
    "Unit_Type":"Army",
    "Subordinate_to":"36th Combined Arms Army",
    "Org_subordinate_to":"36th Combined Arms Army"
},{
    "Unit_Name":"35th Air Defense Brigade",
    "Unit_Alternate_Name":"35th Anti-Aircraft Missile Brigade",
    "Unit_Code":"34696",
    "Unit_Location":"Ulan-Ude",
    "Unit_Size":"Brigade",
    "Unit_Type":"Army",
    "Subordinate_to":"",
    "Org_subordinate_to":"36th Combined Arms Army"
},{
    "Unit_Name":"5th Separate Guards Tank Brigade",
    "Unit_Alternate_Name":"5th Separate Guards Tank Brigade",
    "Unit_Code":"46108",
    "Unit_Location":"Ulan-Ude",
    "Unit_Size":"Brigade",
    "Unit_Type":"Army",
    "Subordinate_to":"",
    "Org_subordinate_to":"36th Combined Arms Army"
},{
    "Unit_Name":"138th Guards Separate Motor Rifle Brigade",
    "Unit_Alternate_Name":"138th Guards Separate Motor Rifle Brigade",
    "Unit_Code":"02511",
    "Unit_Location":"Kamenka, Vyborgsky District, Leningrad Oblast",
    "Unit_Size":"Brigade",
    "Unit_Type":"Army",
    "Subordinate_to":"",
    "Org_subordinate_to":""
},{
    "Unit_Name":"106th Guards Red Banner order of Kutuzov Airborne Division",
    "Unit_Alternate_Name":"106th Airborne Division",
    "Unit_Code":"55599",
    "Unit_Location":"Tula",
    "Unit_Size":"Division",
    "Unit_Type":"VDV",
    "Subordinate_to":"",
    "Org_subordinate_to":""
},{
    "Unit_Name":"14th Separate Spetsnaz Brigade",
    "Unit_Alternate_Name":"14th Separate Spetsnaz Brigade",
    "Unit_Code":"74854",
    "Unit_Location":"Ussuriysk, Primorsky Krai",
    "Unit_Size":"Brigade",
    "Unit_Type":"GRU",
    "Subordinate_to":"",
    "Org_subordinate_to":""
},{
    "Unit_Name":"1st Guards Air Defence Missile Regiment",
    "Unit_Alternate_Name":"1st Guards Air Defence Missile Regiment ",
    "Unit_Code":"71298",
    "Unit_Location":"Naro-Fominsk, Moscow Oblast",
    "Unit_Size":"Regiment",
    "Unit_Type":"VDV",
    "Subordinate_to":"106th Airborne Division",
    "Org_subordinate_to":"106th Airborne Division"
},{
    "Unit_Name":"1182nd Guards Artillery Regiment",
    "Unit_Alternate_Name":"1182nd Guards Artillery Regiment",
    "Unit_Code":"93723",
    "Unit_Location":"Naro-Fominsk, Moscow Oblast",
    "Unit_Size":"Regiment",
    "Unit_Type":"VDV",
    "Subordinate_to":"106th Airborne Division",
    "Org_subordinate_to":"106th Airborne Division"
},{
    "Unit_Name":"34th Separate Motorized Rifle Brigade (Mountain)",
    "Unit_Alternate_Name":"34th Separate Motorized Rifle Brigade (Mountain)",
    "Unit_Code":"01485",
    "Unit_Location":"Storozhova-2, Zelenchuk district",
    "Unit_Size":"Brigade",
    "Unit_Type":"Army",
    "Subordinate_to":"49th Combined Arms Army",
    "Org_subordinate_to":"49th Combined Arms Army"
},{
    "Unit_Name":"49th Combined Arms Army",
    "Unit_Alternate_Name":"49th Combined Arms Army",
    "Unit_Code":"",
    "Unit_Location":"Stavropol",
    "Unit_Size":"Army",
    "Unit_Type":"Army",
    "Subordinate_to":"Southern Military District",
    "Org_subordinate_to":"Southern Military District"
},{
    "Unit_Name":"205th Separate Cossack Motor Rifle Brigade",
    "Unit_Alternate_Name":"205th Separate Cossack Motor Rifle Brigade",
    "Unit_Code":"74814",
    "Unit_Location":"Budyonnovsk",
    "Unit_Size":"Brigade",
    "Unit_Type":"Army",
    "Subordinate_to":"49th Combined Arms Army",
    "Org_subordinate_to":"49th Combined Arms Army"
},{
    "Unit_Name":"39th Engineer Sapper Regiment",
    "Unit_Alternate_Name":"39th Engineer Sapper Regiment",
    "Unit_Code":"53701",
    "Unit_Location":"Kizner, Udmurt Republic, Russia",
    "Unit_Size":"Regiment",
    "Unit_Type":"Army",
    "Subordinate_to":"2nd Guards Tank Army",
    "Org_subordinate_to":"2nd Guards Tank Army"
},{
    "Unit_Name":"19th Motor Rifle Division",
    "Unit_Alternate_Name":"19th Motor Rifle Division",
    "Unit_Code":"20634",
    "Unit_Location":"Vladikavkaz, North Ossetia–Alania Republic, Russia",
    "Unit_Size":"Division",
    "Unit_Type":"Army",
    "Subordinate_to":"58th Combined Arms Army",
    "Org_subordinate_to":"58th Combined Arms Army"
},{
    "Unit_Name":"429th Motorized Rifle Regiment",
    "Unit_Alternate_Name":"429th Motorized Rifle Regiment",
    "Unit_Code":"01860",
    "Unit_Location":"Vladikavkaz, North Ossetia–Alania Republic, Russia",
    "Unit_Size":"Regiment",
    "Unit_Type":"Army",
    "Subordinate_to":"19th Motor Rifle Division",
    "Org_subordinate_to":"19th Motor Rifle Division"
},{
    "Unit_Name":"98th Guards Airborne Division",
    "Unit_Alternate_Name":"98th Guards Airborne Division",
    "Unit_Code":"65451",
    "Unit_Location":"Ivanovo, Ivanovo Oblast, Russia",
    "Unit_Size":"Division",
    "Unit_Type":"VDV",
    "Subordinate_to":"",
    "Org_subordinate_to":""
},{
    "Unit_Name":"3rd Guards Spetsnaz Brigade",
    "Unit_Alternate_Name":"3rd Guards Separate 'Warsaw-Berlin Red Banner Order of Suvorov 3rd degree' Spetsnaz Brigade",
    "Unit_Code":"21208",
    "Unit_Location":"Tolyatti, Samara Oblast, Russia",
    "Unit_Size":"Brigade",
    "Unit_Type":"GRU",
    "Subordinate_to":"",
    "Org_subordinate_to":""
},{
    "Unit_Name":"26th regiment of radiation, chemical and biological protection",
    "Unit_Alternate_Name":"26th regiment of radiation, chemical and biological protection",
    "Unit_Code":"62563",
    "Unit_Location":"Onokhoi, Buryatia, Russia",
    "Unit_Size":"Regiment",
    "Unit_Type":"Army",
    "Subordinate_to":"36th Combined Arms Army",
    "Org_subordinate_to":"36th Combined Arms Army"
},{
    "Unit_Name":"55th Mountain Motor Rifle Brigade",
    "Unit_Alternate_Name":"55th Mountain Motor Rifle Brigade",
    "Unit_Code":"55115",
    "Unit_Location":"Kyzyl, Tyva Republic",
    "Unit_Size":"Brigade",
    "Unit_Type":"Army",
    "Subordinate_to":"41st Combined Arms Army",
    "Org_subordinate_to":"41st Combined Arms Army"
},{
    "Unit_Name":"70th Motorized Rifle Regiment",
    "Unit_Alternate_Name":"70th Motorized Rifle Regiment",
    "Unit_Code":"71718",
    "Unit_Location":"Shali, Chechen Republic",
    "Unit_Size":"Regiment",
    "Unit_Type":"Army",
    "Subordinate_to":"42nd Motor Rifle Division",
    "Org_subordinate_to":"42nd Motor Rifle Division"
},{
    "Unit_Name":"42nd Motor Rifle Division",
    "Unit_Alternate_Name":"42nd Motor Rifle Division",
    "Unit_Code":"",
    "Unit_Location":"",
    "Unit_Size":"Division",
    "Unit_Type":"Army",
    "Subordinate_to":"",
    "Org_subordinate_to":""
},{
    "Unit_Name":"155th Separate Marine Brigade",
    "Unit_Alternate_Name":"155th Separate Marine Brigade",
    "Unit_Code":"30926",
    "Unit_Location":"Vladivostok",
    "Unit_Size":"Brigade",
    "Unit_Type":"Navy",
    "Subordinate_to":"",
    "Org_subordinate_to":""
},{
    "Unit_Name":"7th Guards Mountain Air Assault Division",
    "Unit_Alternate_Name":"7th Guards Mountain Air Assault Division",
    "Unit_Code":"61756",
    "Unit_Location":"Novorossiysk",
    "Unit_Size":"Division",
    "Unit_Type":"VDV",
    "Subordinate_to":"",
    "Org_subordinate_to":""
},{
    "Unit_Name":"152nd Guards Rocket Brigade",
    "Unit_Alternate_Name":"152nd Guards Rocket Brigade",
    "Unit_Code":"54229",
    "Unit_Location":"Chernyakhovsk, Kaliningrad Oblast, Russia",
    "Unit_Size":"Brigade",
    "Unit_Type":"Army",
    "Subordinate_to":"11th Army Corps",
    "Org_subordinate_to":"11th Army Corps"
},{
    "Unit_Name":"5th Separate Railway Brigade",
    "Unit_Alternate_Name":"5th Separate Railway Brigade",
    "Unit_Code":"01662",
    "Unit_Location":"Abakan, Republic of Khakassia, Russia",
    "Unit_Size":"Brigade",
    "Unit_Type":"Army",
    "Subordinate_to":"",
    "Org_subordinate_to":""
},{
    "Unit_Name":"11th Guards Air Assault Brigade",
    "Unit_Alternate_Name":"11th Guards Air Assault Brigade",
    "Unit_Code":"32364",
    "Unit_Location":"Ulan-Ude",
    "Unit_Size":"Brigade",
    "Unit_Type":"VDV",
    "Subordinate_to":"",
    "Org_subordinate_to":"",
    "Note":"Also noted as 55433"
},{
    "Unit_Name":"103rd Separate Brigade of Material and Technical Support",
    "Unit_Alternate_Name":"103rd Separate Brigade of Material and Technical Support",
    "Unit_Code":"72157",
    "Unit_Location":"Belogorsk",
    "Unit_Size":"Brigade",
    "Unit_Type":"Army",
    "Subordinate_to":"35th Combined Arms Red Banner Army",
    "Org_subordinate_to":"35th Combined Arms Red Banner Army"
},{
    "Unit_Name":"227th artillery brigade",
    "Unit_Alternate_Name":"227th Tallinn Artillery Brigade",
    "Unit_Code":"",
    "Unit_Location":"",
    "Unit_Size":"Brigade",
    "Unit_Type":"Army",
    "Subordinate_to":"49th Combined Arms Army",
    "Org_subordinate_to":"49th Combined Arms Army"
},{
    "Unit_Name":"20th Guards Motor Rifle Division",
    "Unit_Alternate_Name":"20th Guards Motor Rifle Division",
    "Unit_Code":"58550",
    "Unit_Location":"Volgograd",
    "Unit_Size":"Division",
    "Unit_Type":"Army",
    "Subordinate_to":"8th Guards Combined Arms Army",
    "Org_subordinate_to":"8th Guards Combined Arms Army"
},{
    "Unit_Name":"18th Army Aviation Brigade",
    "Unit_Alternate_Name":"18th Army Aviation Brigade",
    "Unit_Code":"42838",
    "Unit_Location":"Khabarovsk-Central",
    "Unit_Size":"Brigade",
    "Unit_Type":"Air Force",
    "Subordinate_to":"11th Air Force and Air Defense Army",
    "Org_subordinate_to":"11th Air Force and Air Defense Army"
},{
    "Unit_Name":"423rd Guards Yampolsky Motor Rifle Regiment",
    "Unit_Alternate_Name":"423rd Motor Rifle Regiment",
    "Unit_Code":"91701",
    "Unit_Location":"Naro-Fominsk",
    "Unit_Size":"Regiment",
    "Unit_Type":"Army",
    "Subordinate_to":"4th Guards Kantemirovskaya Tank Division",
    "Org_subordinate_to":"4th Guards Kantemirovskaya Tank Division"
},{
    "Unit_Name":"394th Motorized Rifle Red Banner Regiment",
    "Unit_Alternate_Name":"394th Motorized Rifle Regiment",
    "Unit_Code":"25573",
    "Unit_Location":"",
    "Unit_Size":"Regiment",
    "Unit_Type":"Army",
    "Subordinate_to":"127th Motor Rifle Division",
    "Org_subordinate_to":"127th Motor Rifle Division"
},{
    "Unit_Name":"21st Separate Guards Motor Rifle Brigade",
    "Unit_Alternate_Name":"21st Separate Guards Motor Rifle Brigade",
    "Unit_Code":"12128",
    "Unit_Location":"Totskoye, Orenburg Oblast, Russia",
    "Unit_Size":"Brigade",
    "Unit_Type":"Army",
    "Subordinate_to":"41st combined arms army",
    "Org_subordinate_to":"41st combined arms army"
},{
    "Unit_Name":"35th Guards Separate Motorized Rifle Brigade",
    "Unit_Alternate_Name":"35th Guards Separate Motorized Rifle Brigade",
    "Unit_Code":"41659",
    "Unit_Location":"Aleysk, Altai Krai, Russia",
    "Unit_Size":"Brigade",
    "Unit_Type":"Army",
    "Subordinate_to":"41st combined arms army",
    "Org_subordinate_to":"41st combined arms army"
},{
    "Unit_Name":"96th Separate Reconnaissance Brigade",
    "Unit_Alternate_Name":"96th Separate Reconnaissance Brigade",
    "Unit_Code":"52634",
    "Unit_Location":"Sormovsky, Nizhny Novgorod",
    "Unit_Size":"Brigade",
    "Unit_Type":"GRU",
    "Subordinate_to":"1st Guards Tank Army",
    "Org_subordinate_to":"1st Guards Tank Army"
},{
    "Unit_Name":"163rd Guards Tank Regiment",
    "Unit_Alternate_Name":"163rd Guards Tank Regiment",
    "Unit_Code":"",
    "Unit_Location":"",
    "Unit_Size":"Regiment",
    "Unit_Type":"Army",
    "Subordinate_to":"150th Motor Rifle Division",
    "Org_subordinate_to":"150th Motor Rifle Division"
},{
    "Unit_Name":"150th Motor Rifle Division",
    "Unit_Alternate_Name":"150th Motor Rifle Division",
    "Unit_Code":"",
    "Unit_Location":"Persianovsky",
    "Unit_Size":"Division",
    "Unit_Type":"Army",
    "Subordinate_to":"8th Combined Arms Army",
    "Org_subordinate_to":"8th Combined Arms Army"
},{
    "Unit_Name":"8th Combined Arms Army",
    "Unit_Alternate_Name":"8th Combined Arms Army",
    "Unit_Code":"",
    "Unit_Location":"",
    "Unit_Size":"Army",
    "Unit_Type":"Army",
    "Subordinate_to":"Southern Military District",
    "Org_subordinate_to":"Southern Military District"
},{
    "Unit_Name":"137th Separate Reconnaissance Dembitsky Red Banner Order of Alexander Nevsky 2nd degree battalion",
    "Unit_Alternate_Name":"137th Separate Reconnaissance Battalion",
    "Unit_Code":"54919",
    "Unit_Location":"Naro-Fominsk",
    "Unit_Size":"Army",
    "Unit_Type":"Army",
    "Subordinate_to":"4th Guards Kantemirovskaya Tank Division",
    "Org_subordinate_to":"4th Guards Kantemirovskaya Tank Division"
},{
    "Unit_Name":"4th Guards Kantemirovskaya Tank Division",
    "Unit_Alternate_Name":"4th Guards Tank Division",
    "Unit_Code":"19612",
    "Unit_Location":"",
    "Unit_Size":"Army",
    "Unit_Type":"Army",
    "Subordinate_to":"1st Guards Tank Army",
    "Org_subordinate_to":"1st Guards Tank Army"
},{
    "Unit_Name":"104th Guards Airborne Assault Regiment",
    "Unit_Alternate_Name":"104th Air Assault Regiment",
    "Unit_Code":"32515",
    "Unit_Location":"Cheryokha, Pskov region",
    "Unit_Size":"Regiment",
    "Unit_Type":"VDV",
    "Subordinate_to":"76th Guards Air Assault Division",
    "Org_subordinate_to":"76th Guards Air Assault Division"
},{
    "Unit_Name":"175th Reconnaissance Battalion",
    "Unit_Alternate_Name":"175th Reconnaissance Battalion",
    "Unit_Code":"64004",
    "Unit_Location":"Pskov, Pskov region",
    "Unit_Size":"Battalion",
    "Unit_Type":"VDV",
    "Subordinate_to":"76th Guards Air Assault Division",
    "Org_subordinate_to":"76th Guards Air Assault Division"
},{
    "Unit_Name":"237th Guards Air Assault Regiment",
    "Unit_Alternate_Name":"237th Guards Air Assault Regiment",
    "Unit_Code":"12865",
    "Unit_Location":"Pskov, Pskov region",
    "Unit_Size":"Regiment",
    "Unit_Type":"VDV",
    "Subordinate_to":"76th Guards Air Assault Division",
    "Org_subordinate_to":"76th Guards Air Assault Division"
},{
    "Unit_Name":"473rd district training center",
    "Unit_Alternate_Name":"473rd district training center",
    "Unit_Code":"31612",
    "Unit_Location":"Poroshino",
    "Unit_Size":"",
    "Unit_Type":"Army",
    "Subordinate_to":"",
    "Org_subordinate_to":""
},{
    "Unit_Name":"13th Guards Tank Regiment",
    "Unit_Alternate_Name":"13th Guards Tank Regiment",
    "Unit_Code":"32010",
    "Unit_Location":"Naro-Fominsk",
    "Unit_Size":"Regiment",
    "Unit_Type":"Army",
    "Subordinate_to":"4th Guards Tank Division",
    "Org_subordinate_to":"4th Guards Tank Division"
},{
    "Unit_Name":"24th Separate Special Purpose Brigade",
    "Unit_Alternate_Name":"24th Spetsnaz Brigade",
    "Unit_Code":"55433",
    "Unit_Location":"Shilovo, Novosibirsk Oblast",
    "Unit_Size":"Brigade",
    "Unit_Type":"GRU",
    "Subordinate_to":"8th Directorate",
    "Org_subordinate_to":"8th Directorate"
},{
    "Unit_Name":"53rd Anti-Aircraft Missile Brigade",
    "Unit_Alternate_Name":"53rd Anti-Aircraft Missile Brigade",
    "Unit_Code":"32406",
    "Unit_Location":"Kursk, Kursk Oblast",
    "Unit_Size":"Brigade",
    "Unit_Type":"Army",
    "Subordinate_to":"20th Guards Combined Arms Army",
    "Org_subordinate_to":"20th Guards Combined Arms Army" 
},{
    "Unit_Name":"83rd independent Guards Engineering Battalion",
    "Unit_Alternate_Name":"83rd Engineering Battalion",
    "Unit_Code":"45293",
    "Unit_Location":"Pskov, Pskov Oblast",
    "Unit_Size":"Battalion",
    "Unit_Type":"VDV",
    "Subordinate_to":"76th Guards Air Assault Division",
    "Org_subordinate_to":"76th Guards Air Assault Division"
},{
    "Unit_Name":"661st Engineer Battalion",
    "Unit_Alternate_Name":"661st Engineer Battalion",
    "Unit_Code":"65379",
    "Unit_Location":"Ivanovo",
    "Unit_Size":"Battalion",
    "Unit_Type":"VDV",
    "Subordinate_to":"98th Guards Airborne Division",
    "Org_subordinate_to":"98th Guards Airborne Division"
},{
    "Unit_Name":"2nd independent Special Forces Brigade",
    "Unit_Alternate_Name":"2nd independent Special Forces Brigade",
    "Unit_Code":"64044",
    "Unit_Location":"Pskov, Pskov Oblast",
    "Unit_Size":"Brigade",
    "Unit_Type":"GRU",
    "Subordinate_to":"",
    "Org_subordinate_to":""
},{
    "Unit_Name":"237th Tank Regiment",
    "Unit_Alternate_Name":"237th Tank Regiment",
    "Unit_Code":"91726",
    "Unit_Location":"Soloti, Belgorod Oblast",
    "Unit_Size":"Regiment",
    "Unit_Type":"Army",
    "Subordinate_to":"3rd Motor Rifle Division",
    "Org_subordinate_to":"3rd Motor Rifle Division"
},{
    "Unit_Name":"3rd Motor Rifle Division",
    "Unit_Alternate_Name":"3rd Motor Rifle Division",
    "Unit_Code":"54046",
    "Unit_Location":"Valuyki, Belgorod Oblast",
    "Unit_Size":"Division",
    "Unit_Type":"Army",
    "Subordinate_to":"20th Guards Combined Arms Army",
    "Org_subordinate_to":"20th Guards Combined Arms Army"
},{
    "Unit_Name":"27th Separate Guards Motor Rifle Brigade",
    "Unit_Alternate_Name":"27th Separate Guards Motor Rifle Brigade",
    "Unit_Code":"61899",
    "Unit_Location":"Novomoskovsky, Moscow",
    "Unit_Size":"Brigade",
    "Unit_Type":"Army",
    "Subordinate_to":"1st Guards Tank Army",
    "Org_subordinate_to":"1st Guards Tank Army"
},{
    "Unit_Name":"64th Separate Guards Motor Rifle Brigade",
    "Unit_Alternate_Name":"64th Separate Guards Motor Rifle Brigade",
    "Unit_Code":"51460",
    "Unit_Location":"Knyaze-Volkonskoye",
    "Unit_Size":"Brigade",
    "Unit_Type":"Army",
    "Subordinate_to":"35th Combined Arms Army",
    "Org_subordinate_to":"35th Combined Arms Army"
},{
    "Unit_Name":"31st Guards Separate Air Assault Brigade",
    "Unit_Alternate_Name":"31st Guards Separate Air Assault Brigade",
    "Unit_Code":"73612",
    "Unit_Location":"Ulyanovsk",
    "Unit_Size":"Brigade",
    "Unit_Type":"Army",
    "Subordinate_to":"Southern Military District",
    "Org_subordinate_to":"Southern Military District"
},{
    "Unit_Name":"375th Separate Operational Battalion",
    "Unit_Alternate_Name":"375th Separate Operational Battalion",
    "Unit_Code":"6688",
    "Unit_Location":"Astrakan",
    "Unit_Size":"",
    "Unit_Type":"Rosgvardia",
    "Subordinate_to":"",
    "Org_subordinate_to":""
},{
    "Unit_Name":"61st Naval Infantry Brigade",
    "Unit_Alternate_Name":"61st Naval Infantry Brigade",
    "Unit_Code":"38643",
    "Unit_Location":"Sputnik, Murmansk Oblast",
    "Unit_Size":"Brigade",
    "Unit_Type":"Navy",
    "Subordinate_to":"Northern Fleet",
    "Org_subordinate_to":"Northern Fleet"
},{
    "Unit_Name":"6th Separate Tank Brigade",
    "Unit_Alternate_Name":"",
    "Unit_Code":"54096",
    "Unit_Location":"Mulino",
    "Unit_Size":"Brigade",
    "Unit_Type":"Army",
    "Subordinate_to":"1st Guards Tank Army",
    "Org_subordinate_to":"1st Guards Tank Army"
}
] 
